id,nombre,apellido,familia
1,Juan,Gomez,familia1
2,Maria,Rodriguez,familia2
3,Pedro,Martinez,familia2
4,Ana,Fernandez,familia3
5,Luis,Sanchez,familia2
6,Laura,Gonzalez,famlilia1
7,Carlos,Perez,familia1
8,Sofia,Ramirez,familia4
9,Javier,Diaz,familia1
10,Elena,Soto,familia3
11,Roberto,Hernandez,familia4
12,Marta,Garcia,familia4
13,Diego,Ruiz,familia2
14,Carmen,Lopez,familia5
15,Camila,Perez,familia6
16,Daniel,Sepúlveda,familia5
17,Jacqueline,Rojas,familia5
18,Simone,Orellana,familia6
19,Fernando,Monsalve,familia1
20,Jacob,Mendez,familia6
21,Damian,Almuna,familia6